<svg width="9" height="15" viewBox="0 0 9 15" fill="none" xmlns="http://www.w3.org/2000/svg">
<path d="M8.46685 2.27752C8.98747 1.75867 8.99103 0.914652 8.4704 0.392248C7.94977 -0.130155 7.10753 -0.130156 6.5869 0.388694L0.390915 6.55625C0.140375 6.80679 0 7.14618 0 7.49978C0 7.85515 0.140375 8.19454 0.390915 8.44508L6.5869 14.6109C6.84633 14.8703 7.18749 15 7.52687 15C7.86804 15 8.21097 14.8703 8.4704 14.6073C8.99103 14.0849 8.98747 13.2427 8.46685 12.7238L3.22149 7.49978L8.46685 2.27752Z" fill="black"/>
</svg>
