<svg width="18" height="18" viewBox="0 0 18 18" fill="none" xmlns="http://www.w3.org/2000/svg">
<path d="M12.906 0C15.957 0 18 2.142 18 5.328V12.6819C18 15.858 15.957 18 12.906 18H5.103C2.052 18 0 15.858 0 12.6819V5.328C0 2.142 2.052 0 5.103 0H12.906ZM12.762 6.3C12.456 5.994 11.952 5.994 11.646 6.3L7.929 10.017L6.354 8.442C6.048 8.136 5.544 8.136 5.238 8.442C4.932 8.748 4.932 9.243 5.238 9.558L7.38 11.691C7.533 11.844 7.731 11.916 7.929 11.916C8.136 11.916 8.334 11.844 8.487 11.691L12.762 7.416C13.068 7.11 13.068 6.615 12.762 6.3Z" fill="#2C6753"/>
</svg>
