<svg width="22" height="22" viewBox="0 0 22 22" fill="none" xmlns="http://www.w3.org/2000/svg">
<rect x="0.5" y="-0.5" width="21" height="21" rx="10.5" transform="matrix(1 0 0 -1 0 21)" stroke="#2C6753"/>
<rect width="14" height="14" rx="7" transform="matrix(1 0 0 -1 4 18)" fill="#2C6753"/>
</svg>
