<svg width="26" height="27" viewBox="0 0 26 27" fill="none" xmlns="http://www.w3.org/2000/svg">
<path d="M8.95695 25.344V21.2161C8.95695 20.1623 9.81743 19.3081 10.8789 19.3081H14.759C15.2687 19.3081 15.7576 19.5091 16.118 19.8669C16.4785 20.2247 16.681 20.71 16.681 21.2161V25.344C16.6777 25.7821 16.8508 26.2033 17.1617 26.5142C17.4726 26.8251 17.8957 27 18.337 27H20.9842C22.2205 27.0032 23.4073 26.5178 24.2827 25.6511C25.158 24.7843 25.65 23.6074 25.65 22.38V10.6203C25.65 9.62882 25.2073 8.68838 24.4412 8.0523L15.4359 0.912423C13.8694 -0.339442 11.625 -0.299022 10.1053 1.00842L1.30547 8.0523C0.5032 8.66963 0.0236956 9.61285 0 10.6203V22.368C0 24.9262 2.08896 27 4.66583 27H7.25259C8.16915 27 8.91404 26.2659 8.92068 25.356L8.95695 25.344Z" fill="#2C6753"/>
</svg>
