<svg width="25" height="25" viewBox="0 0 25 25" fill="none" xmlns="http://www.w3.org/2000/svg">
<path fill-rule="evenodd" clip-rule="evenodd" d="M12.5 0C19.3925 0 25 5.6075 25 12.5C25 19.3925 19.3925 25 12.5 25C5.6075 25 0 19.3925 0 12.5C0 5.6075 5.6075 0 12.5 0ZM12.5 1.875C6.64125 1.875 1.875 6.64125 1.875 12.5C1.875 18.3587 6.64125 23.125 12.5 23.125C18.3587 23.125 23.125 18.3587 23.125 12.5C23.125 6.64125 18.3587 1.875 12.5 1.875ZM11.3595 7.49713L15.717 11.8359C15.8932 12.0121 15.992 12.2509 15.992 12.4996C15.992 12.7496 15.8932 12.9884 15.717 13.1646L11.3595 17.5021C11.177 17.6846 10.937 17.7759 10.6983 17.7759C10.4583 17.7759 10.217 17.6846 10.0345 17.4996C9.6695 17.1321 9.67075 16.5396 10.037 16.1746L13.727 12.4996L10.037 8.82588C9.67075 8.46087 9.6695 7.86713 10.0345 7.49963C10.3995 7.13088 10.992 7.13338 11.3595 7.49713Z" fill="#2C6753"/>
</svg>
