<svg width="265" height="265" viewBox="0 0 265 265" fill="none" xmlns="http://www.w3.org/2000/svg">
<path d="M246.185 60.1392C245.344 58.7259 244.461 57.3302 243.535 55.9522C231.255 37.7467 210.113 25.297 189.316 19.6684C180.191 17.2411 170.818 15.8736 161.38 15.5927C99.5712 13.4727 74.9527 62.2327 54.5265 74.7778C34.1003 87.3229 2.65007 108.825 4.77007 153.87C6.89007 198.914 39.3367 241.32 102.189 243.97C165.042 246.62 169.234 218.307 204.326 207.829C227.55 200.897 244.076 177.481 252.132 155.841C263.145 126.341 262.626 88.0384 246.185 60.1392Z" fill="#FFB2CB"/>
<path opacity="0.7" d="M246.185 60.1392C245.344 58.7259 244.461 57.3302 243.535 55.9522C231.255 37.7467 210.113 25.297 189.316 19.6684C180.191 17.2411 170.818 15.8736 161.38 15.5927C99.5712 13.4727 74.9527 62.2327 54.5265 74.7778C34.1003 87.3229 2.65007 108.825 4.77007 153.87C6.89007 198.914 39.3367 241.32 102.189 243.97C165.042 246.62 169.234 218.307 204.326 207.829C227.55 200.897 244.076 177.481 252.132 155.841C263.145 126.341 262.626 88.0384 246.185 60.1392Z" fill="white"/>
<path d="M232.437 64.3898V62.6461H200.181V36.7927H199.132V62.6461H167.104V64.3898H199.132V88.3246H167.104V90.0736H199.132V114.008H167.104V115.752H199.132V140.901H200.181V115.752H232.437V114.008H200.181V90.0736H232.437V88.3246H200.181V64.3898H232.437Z" fill="#263238" stroke="#263238" stroke-miterlimit="10"/>
<path d="M164.894 34.6938V143.699H234.419V34.6938H164.894ZM232.071 140.015H167.241V38.372H232.071V140.015Z" fill="#263238" stroke="#263238" stroke-miterlimit="10"/>
<path d="M134.62 171.678C134.623 171.671 134.624 171.664 134.623 171.657C134.623 171.65 134.622 171.643 134.619 171.636C134.616 171.63 134.611 171.624 134.606 171.62C134.601 171.615 134.595 171.611 134.588 171.609C134.582 171.606 134.575 171.605 134.567 171.605C134.56 171.605 134.553 171.607 134.547 171.61C134.541 171.613 134.535 171.617 134.53 171.623C134.525 171.628 134.522 171.634 134.519 171.641C132.963 175.37 131.732 179.227 130.841 183.168C129.932 187.11 129.247 191.1 128.79 195.12L128.504 198.141C128.461 198.644 128.403 199.148 128.366 199.651L128.286 201.167C128.244 202.179 128.18 203.191 128.149 204.204L128.18 207.241L128.212 208.756C128.212 209.26 128.271 209.769 128.308 210.272C128.382 211.279 128.445 212.292 128.536 213.299C128.732 215.313 129.034 217.311 129.341 219.309C129.344 219.32 129.351 219.331 129.361 219.338C129.37 219.346 129.382 219.35 129.394 219.351C129.401 219.352 129.409 219.351 129.415 219.349C129.422 219.346 129.428 219.343 129.434 219.337C129.439 219.332 129.443 219.326 129.445 219.319C129.447 219.313 129.448 219.305 129.447 219.298C129.447 218.286 129.399 217.284 129.378 216.272C129.357 215.26 129.262 214.268 129.278 213.261C129.293 212.254 129.278 211.247 129.246 210.246L129.214 208.741V207.235V204.225L129.293 201.22L129.325 199.715C129.325 199.211 129.384 198.713 129.41 198.209L129.596 195.204C129.937 191.202 130.505 187.223 131.297 183.285C132.067 179.327 133.179 175.443 134.62 171.678Z" fill="#263238"/>
<path d="M135.049 187.408C135.053 187.395 135.051 187.382 135.045 187.37C135.04 187.358 135.03 187.349 135.017 187.344C135.011 187.342 135.004 187.341 134.997 187.341C134.99 187.341 134.983 187.343 134.976 187.346C134.97 187.349 134.964 187.353 134.959 187.358C134.954 187.363 134.951 187.369 134.948 187.376C133.23 192.396 132.087 197.595 131.541 202.873C131.276 205.523 130.979 208.142 130.942 210.792C130.879 213.445 130.972 216.099 131.223 218.742C131.225 218.752 131.232 218.762 131.24 218.77C131.249 218.777 131.259 218.782 131.27 218.784C131.277 218.785 131.284 218.786 131.29 218.784C131.297 218.783 131.304 218.78 131.309 218.776C131.315 218.772 131.319 218.767 131.323 218.761C131.326 218.755 131.328 218.748 131.329 218.742C131.636 216.092 131.821 213.473 132.007 210.845C132.192 208.216 132.219 205.582 132.389 202.953C132.749 197.699 133.637 192.495 135.039 187.419L135.049 187.408Z" fill="#263238"/>
<path d="M143.773 192.947C143.763 192.937 143.75 192.931 143.736 192.931C143.722 192.931 143.709 192.937 143.699 192.947C141.518 194.347 139.553 196.059 137.869 198.029C137.023 199.025 136.26 200.088 135.59 201.209L135.123 202.094L134.752 203.017C134.628 203.319 134.522 203.629 134.434 203.944C134.339 204.262 134.233 204.569 134.148 204.887C133.482 207.404 133.079 209.983 132.945 212.583C132.815 215.169 132.911 217.762 133.231 220.332C133.235 220.343 133.242 220.354 133.251 220.361C133.261 220.369 133.272 220.373 133.284 220.374C133.291 220.375 133.298 220.374 133.304 220.372C133.311 220.37 133.317 220.367 133.322 220.362C133.327 220.358 133.331 220.352 133.333 220.346C133.336 220.34 133.337 220.333 133.337 220.326L134.005 212.657C134.186 210.12 134.51 207.595 134.975 205.094C135.044 204.781 135.134 204.485 135.214 204.177C135.285 203.87 135.373 203.568 135.479 203.271L135.791 202.386L136.194 201.548C136.801 200.432 137.499 199.369 138.282 198.368C139.839 196.336 141.683 194.542 143.757 193.042C143.766 193.038 143.773 193.032 143.779 193.024C143.785 193.017 143.789 193.008 143.79 192.998C143.792 192.989 143.791 192.979 143.788 192.97C143.785 192.961 143.78 192.953 143.773 192.947Z" fill="#263238"/>
<path d="M139.549 202.799C138.417 203.625 137.507 204.717 136.899 205.979C136.258 207.222 135.759 208.532 135.41 209.885C135.309 210.219 135.224 210.559 135.15 210.898L134.911 211.915C134.785 212.601 134.699 213.292 134.652 213.988C134.652 214.687 134.625 215.382 134.652 216.076C134.702 216.771 134.793 217.463 134.922 218.148C134.925 218.158 134.931 218.167 134.938 218.174C134.946 218.182 134.955 218.187 134.964 218.191C134.971 218.192 134.979 218.192 134.986 218.191C134.993 218.19 134.999 218.187 135.005 218.183C135.011 218.179 135.016 218.174 135.02 218.168C135.024 218.162 135.027 218.155 135.028 218.148C135.189 217.475 135.312 216.794 135.399 216.108C135.505 215.429 135.611 214.761 135.69 214.088C135.77 213.415 135.876 212.753 135.929 212.08C135.982 211.407 136.072 210.733 136.22 210.076C136.453 208.748 136.834 207.451 137.355 206.207C137.824 204.94 138.587 203.801 139.581 202.884C139.585 202.88 139.589 202.874 139.592 202.868C139.594 202.862 139.595 202.856 139.595 202.85C139.595 202.843 139.594 202.837 139.592 202.831C139.589 202.825 139.585 202.82 139.581 202.815C139.572 202.807 139.561 202.801 139.549 202.799Z" fill="#263238"/>
<path d="M127.317 210.484C127.03 207.082 126.469 203.706 125.939 200.34C125.409 196.975 124.815 193.609 124.2 190.27C123.585 186.931 122.896 183.576 122.17 180.248C122.173 180.24 122.174 180.231 122.172 180.223C122.171 180.215 122.168 180.207 122.163 180.2C122.158 180.193 122.151 180.188 122.144 180.184C122.137 180.18 122.128 180.178 122.12 180.178C122.112 180.178 122.103 180.18 122.096 180.184C122.088 180.188 122.082 180.193 122.077 180.2C122.072 180.207 122.069 180.215 122.068 180.223C122.066 180.231 122.067 180.24 122.07 180.248C122.653 183.608 123.177 186.973 123.66 190.344C124.142 193.715 124.651 197.081 125.08 200.457C125.509 203.833 125.822 207.225 126.241 210.596L127.486 220.734C127.489 220.747 127.496 220.758 127.505 220.766C127.515 220.775 127.527 220.78 127.539 220.782C127.554 220.782 127.568 220.777 127.579 220.767C127.589 220.757 127.596 220.744 127.597 220.729C127.635 219.876 127.635 219.023 127.656 218.164C127.677 217.305 127.619 216.457 127.608 215.604C127.592 213.892 127.444 212.191 127.317 210.484Z" fill="#263238"/>
<path d="M125.276 210.436C125.09 209.085 124.847 207.744 124.587 206.408L124.11 204.421C123.951 203.758 123.802 203.096 123.612 202.439C122.932 199.798 122.06 197.21 121.004 194.695L120.596 193.757L120.145 192.84C119.854 192.226 119.509 191.637 119.176 191.038C118.506 189.848 117.679 188.753 116.716 187.784C116.712 187.78 116.707 187.776 116.701 187.773C116.695 187.771 116.688 187.77 116.682 187.77C116.675 187.77 116.669 187.771 116.663 187.773C116.657 187.776 116.652 187.78 116.647 187.784C116.638 187.794 116.632 187.807 116.632 187.821C116.632 187.835 116.638 187.849 116.647 187.858C117.544 188.863 118.3 189.984 118.895 191.192C119.191 191.796 119.504 192.39 119.759 193.015L120.161 193.943L120.516 194.892C121.458 197.415 122.216 200.002 122.785 202.635C123.092 203.944 123.315 205.285 123.553 206.605L123.871 208.597C123.988 209.26 124.131 209.922 124.221 210.59C124.433 211.92 124.682 213.24 124.91 214.581C125.138 215.922 125.361 217.231 125.647 218.583C125.649 218.594 125.655 218.605 125.663 218.614C125.672 218.623 125.683 218.628 125.695 218.63C125.709 218.63 125.723 218.625 125.734 218.615C125.745 218.605 125.752 218.592 125.753 218.577C125.753 217.217 125.721 215.857 125.657 214.496C125.578 213.139 125.414 211.788 125.276 210.436Z" fill="#263238"/>
<path d="M122.456 210.612C121.826 208.82 121.094 207.071 120.299 205.359C119.498 203.648 118.591 201.988 117.586 200.388C117.583 200.381 117.579 200.374 117.573 200.369C117.568 200.363 117.561 200.359 117.554 200.357C117.546 200.354 117.539 200.353 117.531 200.354C117.523 200.355 117.516 200.357 117.509 200.361C117.503 200.365 117.497 200.37 117.493 200.377C117.488 200.383 117.485 200.39 117.484 200.398C117.483 200.405 117.483 200.413 117.485 200.421C117.487 200.428 117.491 200.435 117.496 200.441C118.371 202.103 119.144 203.816 119.812 205.571C120.501 207.31 121.126 209.08 121.645 210.871C122.165 212.663 122.562 214.491 123.039 216.293C123.516 218.095 123.946 219.913 124.502 221.736C124.505 221.747 124.512 221.756 124.52 221.762C124.529 221.769 124.539 221.773 124.55 221.773C124.564 221.773 124.579 221.768 124.589 221.758C124.6 221.748 124.607 221.735 124.608 221.72C124.628 219.819 124.45 217.92 124.078 216.055C123.684 214.2 123.142 212.379 122.456 210.612Z" fill="#263238"/>
<path d="M122.34 216.563C121.992 215.448 121.487 214.388 120.84 213.415C120.237 212.418 119.503 211.507 118.656 210.707C118.224 210.315 117.76 209.96 117.268 209.647C116.777 209.331 116.24 209.092 115.678 208.937C115.666 208.934 115.654 208.936 115.643 208.942C115.632 208.948 115.624 208.957 115.619 208.968C115.611 208.978 115.607 208.99 115.607 209.003C115.607 209.016 115.611 209.028 115.619 209.037C116.624 209.522 117.515 210.214 118.232 211.067C118.957 211.902 119.568 212.828 120.05 213.823C120.58 214.798 120.835 215.88 121.285 216.892C121.481 217.422 121.677 217.925 121.911 218.445C122.101 218.99 122.329 219.522 122.594 220.035C122.599 220.043 122.606 220.049 122.615 220.054C122.623 220.059 122.632 220.061 122.642 220.061C122.649 220.062 122.655 220.061 122.662 220.059C122.668 220.057 122.674 220.054 122.679 220.049C122.684 220.045 122.688 220.039 122.691 220.033C122.694 220.027 122.695 220.02 122.695 220.014C122.716 219.432 122.695 218.849 122.631 218.27C122.594 217.692 122.478 217.125 122.34 216.563Z" fill="#263238"/>
<path d="M122.552 185.103C120.847 184.631 119.304 183.702 118.09 182.417C116.875 181.131 116.036 179.538 115.662 177.81C114.374 171.799 118.524 174.375 114.803 164.931C111.083 155.486 111.941 153.34 113.213 150.621C114.485 147.902 115.217 148.76 116.361 152.338C117.506 155.915 121.661 161.496 123.251 171.948C124.841 182.4 122.552 185.103 122.552 185.103Z" fill="#FFB2CB"/>
<path d="M133.56 174.948C133.56 174.948 129.85 173.66 129.696 166.648C129.542 159.636 132.415 161.067 132.844 152.338C133.274 143.609 133.846 137.456 135.42 137.312C136.994 137.169 141.144 141.605 142.575 151.336C144.006 161.067 140.715 167.507 137.853 170.369C134.991 173.231 133.56 174.948 133.56 174.948Z" fill="#FFB2CB"/>
<path d="M120.548 193.545C120.548 193.545 119.69 188.394 117.973 185.961C116.255 183.528 112.535 181.382 110.102 176.665C107.669 171.948 104.95 169.653 105.094 176.379C105.237 183.104 108.242 186.533 111.984 188.823C115.725 191.113 120.548 193.545 120.548 193.545Z" fill="#FFB2CB"/>
<path d="M118.974 202.418C118.974 202.418 115.54 195.835 110.531 190.97C105.523 186.104 101.521 183.672 102.947 186.104C104.373 188.537 106.095 188.394 108.528 192.687C110.961 196.98 110.245 200.107 113.68 202.561C117.114 205.015 118.974 202.418 118.974 202.418Z" fill="#FFB2CB"/>
<path d="M118.545 210.86C118.402 210.431 118.259 207.283 113.393 204.707C108.528 202.131 103.949 203.117 104.521 204.421C105.094 205.725 108.099 207.855 111.104 209.143C114.109 210.431 118.545 210.86 118.545 210.86Z" fill="#FFB2CB"/>
<path d="M133.279 193.832C133.279 193.832 131.133 191.113 132.277 185.389C133.422 179.665 135.987 181.096 138.86 178.091C141.733 175.086 141.15 174.662 144.012 171.513C146.874 168.365 149.449 166.648 150.594 167.936C151.739 169.224 150.022 173.236 148.305 175.52C146.587 177.804 143.868 178.949 142.57 181.79C141.271 184.631 141.854 189.21 138.563 191.378C135.272 193.545 133.279 193.832 133.279 193.832Z" fill="#FFB2CB"/>
<path d="M140.45 195.406C140.45 195.406 145.602 189.539 149.322 185.246C153.043 180.953 154.474 177.667 154.622 180.523C154.771 183.38 155.91 185.675 152.905 189.396C149.9 193.116 140.45 195.406 140.45 195.406Z" fill="#FFB2CB"/>
<path d="M137.715 204.85C137.715 204.85 137.572 202.561 145.729 197.266C153.885 191.971 157.32 190.97 156.461 193.116C155.603 195.263 152.025 197.409 148.161 201.273C144.298 205.137 137.715 204.85 137.715 204.85Z" fill="#FFB2CB"/>
<path d="M122.891 184.493C122.891 184.493 120.978 174.232 118.974 166.934C116.971 159.636 115.683 155.2 115.683 155.2" stroke="#263238" stroke-linecap="round" stroke-linejoin="round"/>
<path d="M133.237 175.054C133.237 175.054 136.713 163.924 137.858 157.203C139.003 150.483 137.715 145.469 137.143 142.464" stroke="#263238" stroke-linecap="round" stroke-linejoin="round"/>
<path d="M120.098 193.333C118.557 190.683 116.793 188.169 114.824 185.818C111.676 182.108 109.243 180.094 107.812 176.522" stroke="#263238" stroke-linecap="round" stroke-linejoin="round"/>
<path d="M133.279 193.832C133.279 193.832 134.424 186.942 137.143 183.385C139.862 179.829 145.299 174.232 147.446 170.665" stroke="#263238" stroke-linecap="round" stroke-linejoin="round"/>
<path d="M118.19 210.702C118.19 210.702 113.378 207.569 109.943 205.852" stroke="#263238" stroke-linecap="round" stroke-linejoin="round"/>
<path d="M134.032 241.049H124.089L119.117 216.155H139.003L134.032 241.049Z" fill="#263238" stroke="#263238" stroke-linecap="round" stroke-linejoin="round"/>
<path d="M34.344 241.049H259.689" stroke="#263238" stroke-miterlimit="10"/>
<path d="M16.5254 241.049H30.5015" stroke="#263238" stroke-miterlimit="10"/>
<path d="M114.554 88.51V71.815H113.044V50.4507C113.044 48.7207 112.704 47.0075 112.043 45.4089C111.381 43.8104 110.411 42.3579 109.188 41.1343C107.965 39.9108 106.513 38.9402 104.915 38.278C103.316 37.6157 101.603 37.2749 99.8733 37.2749H29.1077C25.6132 37.2749 22.2619 38.6631 19.791 41.134C17.32 43.6049 15.9319 46.9563 15.9319 50.4507V218.689C15.9319 222.183 17.32 225.534 19.791 228.005C22.2619 230.476 25.6132 231.864 29.1077 231.864H99.8733C101.603 231.864 103.316 231.524 104.915 230.861C106.513 230.199 107.965 229.229 109.188 228.005C110.411 226.781 111.381 225.329 112.043 223.73C112.704 222.132 113.044 220.419 113.044 218.689V102.741H114.554V92.8772H113.044V88.51H114.554Z" fill="#707070" stroke="#263238" stroke-linejoin="round"/>
<path d="M97.5625 230.046H31.4132C27.7121 230.046 24.1626 228.576 21.5455 225.959C18.9285 223.342 17.4583 219.793 17.4583 216.092V53.0476C17.4583 45.3361 21.4121 39.0874 31.4132 39.0874H97.5625C106.737 38.9655 111.523 45.3361 111.523 53.0476V216.092C111.523 217.925 111.162 219.74 110.46 221.433C109.758 223.126 108.73 224.665 107.433 225.961C106.137 227.257 104.598 228.285 102.904 228.986C101.211 229.687 99.3955 230.047 97.5625 230.046Z" fill="#263238" stroke="#263238" stroke-linejoin="round"/>
<path d="M69.6103 41.2339L69.5838 41.3346C68.81 44.2178 67.0292 46.1046 65.0576 46.1046H63.9234C61.9518 46.1046 60.171 44.239 59.3972 41.3346V41.2339L31.7948 41.1385C30.2665 41.1336 28.7522 41.4303 27.3388 42.0116C25.9253 42.593 24.6405 43.4475 23.5578 44.5262C22.4752 45.6049 21.616 46.8866 21.0295 48.298C20.4431 49.7093 20.1408 51.2225 20.1401 52.7508L20.103 214.369C20.103 221.9 25.9966 228.006 33.2735 228.006H95.7287C103.006 228.006 108.905 221.9 108.905 214.369V51.5901C108.905 48.9394 107.86 46.3956 105.996 44.5104C104.133 42.6253 101.602 41.5508 98.9511 41.5201L69.6103 41.2339Z" fill="white" stroke="#263238" stroke-miterlimit="10"/>
<path d="M108.894 54.5263V51.5901C108.894 48.9395 107.849 46.3956 105.986 44.5105C104.123 42.6253 101.591 41.5508 98.9405 41.5201L69.6103 41.218L69.5838 41.3187C68.81 44.2019 67.0292 46.0887 65.0576 46.0887H63.9234C61.9518 46.0887 60.171 44.2231 59.3972 41.3187V41.218L31.7948 41.1226C30.2652 41.1177 28.7496 41.415 27.3351 41.9973C25.9206 42.5796 24.6351 43.4355 23.5522 44.5159C22.4693 45.5963 21.6105 46.88 21.025 48.2931C20.4394 49.7063 20.1387 51.2212 20.1401 52.7508V54.5263H108.894Z" fill="#DBDBDB" stroke="#263238" stroke-miterlimit="10"/>
<path d="M65.455 40.916C65.455 40.6705 65.3821 40.4305 65.2456 40.2264C65.1091 40.0223 64.9151 39.8634 64.6882 39.7697C64.4613 39.676 64.2116 39.6517 63.9709 39.7C63.7302 39.7483 63.5092 39.8669 63.336 40.0409C63.1627 40.2149 63.045 40.4364 62.9978 40.6773C62.9505 40.9182 62.9759 41.1677 63.0705 41.3943C63.1652 41.6208 63.325 41.8141 63.5297 41.9497C63.7343 42.0854 63.9746 42.1572 64.2201 42.1562C64.3827 42.1562 64.5437 42.1241 64.6939 42.0617C64.8441 41.9993 64.9805 41.9078 65.0952 41.7926C65.2099 41.6774 65.3008 41.5406 65.3625 41.3902C65.4243 41.2397 65.4557 41.0786 65.455 40.916Z" fill="#707070"/>
<path d="M28.8322 44.0643C28.8322 45.3204 27.4277 45.7709 27.4224 46.7143V46.7779H28.7845V47.1966H26.9666V46.8521C26.9666 45.5112 28.3711 45.2621 28.3711 44.0855C28.3711 43.6562 28.228 43.4336 27.8835 43.4336C27.539 43.4336 27.3959 43.6774 27.3959 44.0431V44.4088H26.9666V44.0749C26.9666 43.4389 27.2528 43.0149 27.8941 43.0149C28.5354 43.0149 28.8322 43.4601 28.8322 44.0643Z" fill="#263238"/>
<path d="M31.1058 44.0588V44.1648C31.1237 44.3462 31.0815 44.5285 30.9857 44.6836C30.89 44.8387 30.746 44.9581 30.5758 45.0234C30.747 45.0872 30.8921 45.2062 30.9881 45.3617C31.0841 45.5172 31.1255 45.7003 31.1058 45.882V46.2C31.1058 46.836 30.809 47.26 30.1677 47.26C29.5264 47.26 29.2349 46.8466 29.2349 46.2V45.9191H29.6801V46.2318C29.6801 46.6028 29.8338 46.8307 30.1677 46.8307C30.5016 46.8307 30.65 46.6081 30.65 46.1894V45.8714C30.65 45.458 30.4804 45.2619 30.12 45.2513H29.8709V44.8379H30.1412C30.2133 44.8387 30.2848 44.8238 30.3507 44.7943C30.4165 44.7647 30.4751 44.7212 30.5225 44.6668C30.5699 44.6124 30.6049 44.5483 30.6251 44.479C30.6452 44.4097 30.6501 44.3368 30.6394 44.2655V44.08C30.6394 43.6507 30.491 43.4334 30.1571 43.4334C29.8232 43.4334 29.6695 43.6613 29.6695 44.0376V44.2496H29.2349V44.0588C29.2349 43.4281 29.5317 42.9988 30.1677 42.9988C30.8037 42.9988 31.1058 43.4281 31.1058 44.0588Z" fill="#263238"/>
<path d="M32.0016 44.377V44.9493H31.5564V44.377H32.0016ZM32.0016 46.6348V47.2072H31.5564V46.6401L32.0016 46.6348Z" fill="#263238"/>
<path d="M32.9343 44.7478C32.9958 44.6388 33.0863 44.5489 33.1957 44.4881C33.3052 44.4273 33.4293 44.3979 33.5544 44.4033C34.0844 44.4033 34.3229 44.7955 34.3229 45.3891V46.2C34.3229 46.836 34.0208 47.26 33.3901 47.26C32.7594 47.26 32.4573 46.8466 32.4573 46.2V45.9244H32.8866V46.2318C32.8866 46.6028 33.0456 46.8307 33.3742 46.8307C33.7028 46.8307 33.8618 46.6028 33.8618 46.2318V45.4262C33.8618 45.0499 33.7081 44.8273 33.3742 44.8273C33.314 44.8245 33.2538 44.8339 33.1973 44.8549C33.1408 44.876 33.0892 44.9084 33.0456 44.95C33.002 44.9916 32.9673 45.0417 32.9436 45.0971C32.9199 45.1526 32.9077 45.2122 32.9078 45.2725V45.3626H32.4732L32.5845 43.0571H34.2222V43.4599H33.0032L32.9343 44.7478Z" fill="#263238"/>
<path d="M36.6337 44.0535V44.133H36.1991V44.027C36.1991 43.6507 36.0454 43.4334 35.7062 43.4334C35.367 43.4334 35.1762 43.656 35.1762 44.1012V45.0499C35.2242 44.9133 35.3153 44.7961 35.4357 44.7158C35.5562 44.6355 35.6995 44.5965 35.844 44.6047C36.374 44.6047 36.6178 44.9916 36.6178 45.5905V46.2159C36.6178 46.8519 36.3051 47.2759 35.6691 47.2759C35.0331 47.2759 34.7151 46.8625 34.7151 46.2159V44.0959C34.7151 43.4387 35.0119 43.0359 35.6691 43.0359C36.3263 43.0359 36.6337 43.4175 36.6337 44.0535ZM35.2027 45.6064V46.2318C35.2027 46.6028 35.3564 46.8307 35.6956 46.8307C36.0348 46.8307 36.1885 46.6028 36.1885 46.2318V45.6064C36.1885 45.2354 36.0295 45.0075 35.6956 45.0075C35.3617 45.0075 35.2027 45.2354 35.2027 45.6064Z" fill="#263238"/>
<path d="M81.9486 44.239H80.7773V47.1699H81.9486V44.239Z" fill="#263238"/>
<path d="M83.5121 43.6509H82.3408V47.1701H83.5121V43.6509Z" fill="#263238"/>
<path d="M85.0756 43.2322H83.9043V47.1648H85.0756V43.2322Z" fill="#263238"/>
<path d="M86.6339 42.5061H85.4626V47.1648H86.6339V42.5061Z" fill="#263238"/>
<path d="M101.14 47.0852H94.1069V42.7869H101.14V47.0852ZM94.4991 46.6983H100.748V43.1791H94.4991V46.6983Z" fill="#263238"/>
<path d="M98.7974 43.603H95.0874V46.2689H98.7974V43.603Z" fill="#263238"/>
<path d="M101.781 44.4299H100.896V45.4422H101.781V44.4299Z" fill="#263238"/>
<path d="M91.5312 46.1523C91.4827 46.1534 91.4349 46.1405 91.3934 46.1152C89.9624 45.2619 89.019 46.0516 88.9766 46.0887C88.928 46.137 88.8623 46.164 88.7938 46.164C88.7253 46.164 88.6595 46.137 88.6109 46.0887C88.5624 46.0392 88.5352 45.9726 88.5352 45.9032C88.5352 45.8339 88.5624 45.7673 88.6109 45.7177C88.6639 45.6753 89.8723 44.6577 91.6425 45.7177C91.6899 45.7482 91.7263 45.793 91.7464 45.8455C91.7666 45.8981 91.7696 45.9557 91.7548 46.0101C91.74 46.0644 91.7084 46.1126 91.6643 46.1477C91.6203 46.1828 91.5663 46.203 91.51 46.2053L91.5312 46.1523Z" fill="#263238"/>
<path d="M92.0612 45.2674C92.0126 45.2684 91.9648 45.2555 91.9234 45.2303C89.8564 44.0007 88.4625 45.1932 88.4519 45.2303C88.3987 45.2665 88.3342 45.2822 88.2703 45.2743C88.2065 45.2665 88.1476 45.2357 88.1048 45.1877C88.062 45.1397 88.0381 45.0777 88.0376 45.0134C88.0371 44.9491 88.06 44.8867 88.1021 44.8381C88.1021 44.8381 89.7981 43.3859 92.1937 44.8063C92.2235 44.8237 92.2496 44.847 92.2704 44.8747C92.2912 44.9024 92.3062 44.9339 92.3146 44.9675C92.323 45.0011 92.3246 45.036 92.3193 45.0702C92.314 45.1044 92.3019 45.1372 92.2838 45.1667C92.2581 45.2008 92.2242 45.2279 92.1853 45.2455C92.1464 45.2631 92.1037 45.2706 92.0612 45.2674Z" fill="#263238"/>
<path d="M92.538 44.2444C92.4913 44.2447 92.4453 44.2318 92.4055 44.2073C89.7873 42.6491 88.0436 44.1172 87.9694 44.2073C87.9453 44.232 87.9164 44.2516 87.8845 44.2649C87.8527 44.2783 87.8185 44.2852 87.7839 44.2852C87.7494 44.2852 87.7152 44.2783 87.6833 44.2649C87.6515 44.2516 87.6226 44.232 87.5984 44.2073C87.5755 44.1818 87.558 44.152 87.5469 44.1196C87.5358 44.0872 87.5314 44.0529 87.5339 44.0188C87.5363 43.9846 87.5457 43.9513 87.5613 43.9209C87.577 43.8904 87.5986 43.8635 87.6249 43.8416C87.6249 43.8416 89.7131 42.0502 92.6758 43.8098C92.7351 43.846 92.7778 43.9041 92.7946 43.9715C92.8115 44.0389 92.8012 44.1103 92.7659 44.1702C92.7367 44.1999 92.7007 44.2222 92.6611 44.2351C92.6214 44.248 92.5792 44.2512 92.538 44.2444Z" fill="#263238"/>
<path d="M90.7415 46.5924C90.7425 46.7245 90.7039 46.8539 90.6308 46.964C90.5577 47.074 90.4533 47.1597 90.3311 47.21C90.2089 47.2603 90.0744 47.2728 89.945 47.2461C89.8156 47.2194 89.6971 47.1546 89.6048 47.06C89.5126 46.9654 89.4507 46.8454 89.4271 46.7154C89.4036 46.5854 89.4194 46.4513 89.4727 46.3303C89.5259 46.2094 89.6142 46.1071 89.726 46.0367C89.8378 45.9663 89.9681 45.9309 90.1002 45.9352C90.2717 45.9393 90.4348 46.0104 90.5547 46.1332C90.6745 46.256 90.7415 46.4208 90.7415 46.5924Z" fill="#263238"/>
<path d="M64.4111 115.36C76.0711 115.54 85.786 119.96 93.4445 128.801C93.6909 129.068 93.8805 129.383 94.0018 129.726C94.1231 130.069 94.1737 130.433 94.1504 130.796C94.1271 131.159 94.0305 131.514 93.8664 131.839C93.7022 132.163 93.474 132.451 93.1954 132.685C92.926 132.916 92.6128 133.091 92.2746 133.199C91.9364 133.307 91.58 133.345 91.2266 133.313C90.8731 133.28 90.5298 133.177 90.2171 133.009C89.9043 132.841 89.6285 132.612 89.4059 132.336C86.6731 129.106 83.351 126.426 79.6168 124.439C73.8744 121.388 67.3477 120.133 60.8835 120.837C54.4192 121.541 48.3157 124.172 43.3648 128.387C41.9809 129.617 40.6679 130.925 39.4322 132.304C39.2015 132.583 38.9178 132.814 38.5973 132.983C38.2769 133.152 37.9262 133.256 37.5654 133.288C37.2046 133.321 36.8409 133.281 36.4954 133.172C36.1499 133.064 35.8295 132.887 35.5526 132.654C35.2793 132.415 35.0571 132.123 34.899 131.796C34.7409 131.469 34.6502 131.114 34.6324 130.752C34.6146 130.389 34.67 130.027 34.7953 129.686C34.9206 129.345 35.1133 129.033 35.3618 128.769C41.4916 121.487 50.1393 116.781 59.5828 115.588C60.346 115.487 61.1145 115.402 61.883 115.37C62.6515 115.339 63.5684 115.36 64.4111 115.36Z" fill="#263238"/>
<path d="M65.3757 126.167C72.7427 126.357 79.6857 129.5 85.1129 135.797C85.3627 136.061 85.5556 136.374 85.6793 136.716C85.8031 137.057 85.8552 137.421 85.8323 137.784C85.8094 138.147 85.7121 138.501 85.5464 138.825C85.3807 139.149 85.1501 139.435 84.8691 139.666C84.5975 139.901 84.2807 140.079 83.9381 140.189C83.5954 140.298 83.2341 140.337 82.8761 140.302C82.5181 140.267 82.1709 140.16 81.8556 139.987C81.5404 139.814 81.2637 139.578 81.0425 139.295C78.3214 136.001 74.6605 133.616 70.5485 132.458C62.0102 130.147 54.5902 132.256 48.3892 138.59C48.156 138.828 47.944 139.083 47.7267 139.326C47.497 139.599 47.2153 139.824 46.898 139.987C46.5808 140.15 46.2342 140.249 45.8786 140.277C45.5229 140.305 45.1652 140.262 44.8262 140.151C44.4873 140.04 44.1738 139.862 43.9041 139.628C43.6344 139.395 43.4138 139.11 43.2551 138.79C43.0964 138.471 43.0028 138.123 42.9797 137.767C42.9567 137.411 43.0046 137.054 43.1208 136.717C43.2369 136.379 43.4189 136.068 43.6563 135.802C46.0522 132.96 49.0073 130.642 52.3377 128.991C56.1484 127.099 60.1923 126.182 65.3757 126.167Z" fill="#263238"/>
<path d="M77.4913 144.589C77.4936 145.135 77.3301 145.668 77.0225 146.119C76.7149 146.569 76.2777 146.916 75.7688 147.112C75.253 147.317 74.686 147.354 74.1478 147.219C73.6096 147.084 73.1273 146.783 72.769 146.36C71.6502 145.039 70.2431 143.993 68.6562 143.301C64.236 141.425 59.36 142.57 56.0687 146.28C55.7367 146.703 55.282 147.014 54.7667 147.168C54.2515 147.323 53.7011 147.314 53.1908 147.144C52.7679 147.012 52.3843 146.777 52.0741 146.46C51.7639 146.144 51.5367 145.756 51.4129 145.33C51.2891 144.905 51.2724 144.455 51.3644 144.022C51.4564 143.588 51.6541 143.184 51.94 142.846C53.461 141.017 55.3666 139.545 57.5212 138.537C59.6757 137.529 62.0262 137.008 64.405 137.012C66.7838 137.016 69.1325 137.545 71.2836 138.561C73.4347 139.576 75.3353 141.054 76.85 142.888C77.18 143.4 77.4469 143.95 77.645 144.526L77.4913 144.589Z" fill="#263238"/>
<path d="M64.4057 158.735C63.3347 158.738 62.2869 158.423 61.3953 157.83C60.5036 157.237 59.8082 156.392 59.3974 155.403C58.9866 154.414 58.8788 153.325 59.0878 152.274C59.2967 151.224 59.813 150.259 60.571 149.503C61.3291 148.746 62.2948 148.232 63.3456 148.025C64.3965 147.818 65.4851 147.928 66.4734 148.341C67.4616 148.753 68.305 149.45 68.8966 150.343C69.4881 151.236 69.8011 152.285 69.7958 153.356C69.7965 154.063 69.6575 154.764 69.3867 155.417C69.116 156.071 68.7188 156.665 68.218 157.165C67.7172 157.665 67.1227 158.061 66.4685 158.33C65.8142 158.6 65.1133 158.737 64.4057 158.735Z" fill="#263238"/>
<path d="M64.4375 96.46C56.8143 96.4589 49.3619 98.7186 43.023 102.953C36.684 107.188 31.7432 113.207 28.8255 120.25C25.9077 127.293 25.144 135.043 26.6309 142.519C28.1179 149.996 31.7888 156.864 37.1792 162.255C42.5697 167.645 49.4376 171.316 56.9144 172.803C64.3913 174.29 72.1412 173.526 79.1839 170.608C86.2267 167.691 92.246 162.75 96.4806 156.411C100.715 150.072 102.975 142.62 102.974 134.996C102.961 124.78 98.8971 114.985 91.6729 107.761C84.4487 100.537 74.6541 96.4726 64.4375 96.46ZM31.1959 135.017C31.1875 128.56 33.0613 122.24 36.5882 116.83C40.1152 111.421 45.1422 107.156 51.0545 104.559C56.9668 101.962 63.5079 101.144 69.8777 102.205C76.2476 103.267 82.1698 106.162 86.9201 110.537L39.9568 157.479C34.3197 151.357 31.1922 143.339 31.1959 135.017ZM64.4375 168.259C56.9601 168.263 49.7019 165.734 43.847 161.083L90.487 114.443C94.3629 119.339 96.7803 125.228 97.4618 131.435C98.1433 137.642 97.0614 143.915 94.3402 149.535C91.6189 155.155 87.3686 159.894 82.0767 163.209C76.7849 166.524 70.6659 168.279 64.4216 168.275L64.4375 168.259Z" fill="#FFB2CB"/>
<path d="M226.575 241.049H221.551L220.475 229.093H227.651L226.575 241.049Z" fill="#263238" stroke="#263238" stroke-miterlimit="10"/>
<path d="M247.499 241.049H242.475L241.399 229.093H248.575L247.499 241.049Z" fill="#263238" stroke="#263238" stroke-miterlimit="10"/>
<path d="M197.282 241.049H192.258L191.187 229.093H198.358L197.282 241.049Z" fill="#263238" stroke="#263238" stroke-miterlimit="10"/>
<path d="M174.863 241.049H169.844L168.768 229.093H175.939L174.863 241.049Z" fill="#263238" stroke="#263238" stroke-miterlimit="10"/>
<path d="M198.84 152.057H251.056C251.056 152.057 251.262 170.209 248.575 183.062C245.888 195.914 242.597 203.684 242.597 203.684H192.978C192.978 203.684 200.34 175.255 198.84 152.057Z" fill="white" stroke="#263238" stroke-miterlimit="10"/>
<path d="M220.512 154.829C215.933 154.468 214.115 153.546 210.691 151.649C206.234 149.206 205.28 150.833 205.598 153.276C205.916 155.719 201.267 171.826 200.298 179.935C199.328 188.044 199.656 192.406 199.656 192.406C199.656 192.406 196.794 194.849 198.702 195.66C199.93 196.169 201.212 196.534 202.524 196.747H239.443C239.443 196.747 246.005 163.033 246.641 157.611C247.277 152.189 244.415 151.649 242.819 152.46C241.224 153.271 240.911 153.817 238.68 154.087C233.465 154.76 226.787 155.316 220.512 154.829Z" fill="#FFB2CB"/>
<path d="M208.624 155.375C209.579 154.303 210.251 153.009 210.58 151.612C210.134 151.373 209.726 151.177 209.35 151.018C209.105 152.322 208.507 153.533 207.622 154.521C206.961 155.324 206.142 155.983 205.216 156.456C205.121 156.938 205.015 157.463 204.898 158.046C206.361 157.513 207.65 156.589 208.624 155.375Z" fill="white"/>
<path d="M241.68 165.922C239.343 168.667 239.433 171.105 239.518 173.469C239.602 175.674 239.677 177.751 237.673 180.11C235.67 182.468 233.598 182.717 231.409 182.993C229.066 183.279 226.639 183.581 224.307 186.327C221.975 189.072 222.054 191.51 222.144 193.869C222.211 194.835 222.184 195.806 222.065 196.768H223.4C223.501 195.789 223.521 194.803 223.459 193.821C223.379 191.616 223.3 189.533 225.308 187.18C227.317 184.827 229.379 184.567 231.573 184.297C233.915 184.011 236.343 183.708 238.675 180.963C241.007 178.218 240.922 175.78 240.837 173.416C240.753 171.211 240.678 169.128 242.687 166.775C243.446 165.851 244.417 165.123 245.517 164.655C245.607 164.125 245.697 163.637 245.782 163.155C244.171 163.651 242.744 164.614 241.68 165.922Z" fill="white"/>
<path d="M204.172 196.174C206.52 195.883 208.942 195.58 211.279 192.835C213.617 190.09 213.526 187.652 213.442 185.293C213.357 183.088 213.283 181.005 215.286 178.652C217.289 176.299 219.362 176.039 221.551 175.769C223.893 175.478 226.321 175.181 228.653 172.435C230.985 169.69 230.905 167.247 230.815 164.888C230.736 162.683 230.656 160.6 232.665 158.247C234.673 155.894 236.74 155.634 238.929 155.364C241.118 155.094 243.307 154.834 245.47 152.64C245.051 152.328 244.539 152.167 244.017 152.184C242.819 153.162 241.359 153.765 239.82 153.917C239.449 154.001 239.074 154.065 238.696 154.108L237.106 154.293C234.965 154.614 233.023 155.726 231.663 157.41C229.32 160.161 229.411 162.599 229.501 164.957C229.58 167.162 229.66 169.245 227.651 171.603C225.642 173.962 223.581 174.211 221.386 174.481C219.044 174.773 216.616 175.069 214.284 177.815C211.952 180.56 212.037 183.004 212.122 185.362C212.207 187.567 212.281 189.65 210.278 192.003C208.274 194.356 206.202 194.616 204.013 194.886C202.474 194.986 200.967 195.374 199.572 196.031C200.265 196.274 200.973 196.472 201.692 196.625C202.506 196.413 203.335 196.263 204.172 196.174Z" fill="white"/>
<path d="M201.262 184.308C203.6 181.562 203.51 179.124 203.425 176.766C203.345 174.556 203.266 172.478 205.274 170.119C207.283 167.761 209.345 167.512 211.534 167.242C213.876 166.95 216.304 166.648 218.641 163.903C220.978 161.157 220.888 158.719 220.803 156.361C220.803 155.831 220.766 155.348 220.772 154.845H220.512L219.452 154.744C219.452 155.311 219.452 155.868 219.478 156.424C219.563 158.629 219.637 160.712 217.634 163.065C215.631 165.418 213.558 165.678 211.369 165.948C209.027 166.24 206.599 166.537 204.262 169.282C201.925 172.027 202.015 174.465 202.105 176.829C202.185 179.034 202.259 181.117 200.255 183.47C200.144 183.603 200.033 183.725 199.916 183.841C199.863 184.514 199.815 185.15 199.778 185.744C200.323 185.319 200.82 184.838 201.262 184.308Z" fill="white"/>
<path d="M220.512 154.829C215.933 154.468 214.115 153.546 210.691 151.649C206.234 149.206 205.28 150.833 205.598 153.276C205.916 155.719 201.267 171.826 200.298 179.935C199.328 188.044 199.656 192.406 199.656 192.406C199.656 192.406 196.794 194.849 198.702 195.66C199.93 196.169 201.212 196.534 202.524 196.747H239.443C239.443 196.747 246.005 163.033 246.641 157.611C247.277 152.189 244.415 151.649 242.819 152.46C241.224 153.271 240.911 153.817 238.68 154.087C233.465 154.76 226.787 155.316 220.512 154.829Z" stroke="#263238" stroke-miterlimit="10"/>
<path d="M198.84 152.057H195.888C195.353 152.057 194.833 152.237 194.412 152.569C193.992 152.901 193.696 153.364 193.572 153.885L189.904 169.255C189.226 172.107 186.905 180.322 184.35 181.758C182.781 182.638 181.013 183.1 179.214 183.099H168.148L172.854 231.207H192.994L198.294 154.606C198.312 154.43 198.312 154.252 198.294 154.076H198.893L198.84 152.057Z" fill="white" stroke="#263238" stroke-miterlimit="10"/>
<path d="M171.1 183.094H182.172C183.97 183.094 185.738 182.632 187.307 181.753C189.862 180.316 192.178 172.101 192.862 169.25L196.524 153.88C196.649 153.36 196.945 152.896 197.365 152.565C197.785 152.233 198.305 152.052 198.84 152.052C199.166 152.051 199.489 152.119 199.789 152.249C200.088 152.379 200.357 152.569 200.58 152.808C200.803 153.046 200.974 153.328 201.083 153.636C201.192 153.943 201.237 154.27 201.214 154.596L195.782 231.202H175.642L171.1 183.094Z" fill="white" stroke="#263238" stroke-miterlimit="10"/>
<path d="M218.381 231.228L219.531 196.768L173.363 196.36L174.518 231.228H218.381Z" fill="white" stroke="#263238" stroke-miterlimit="10"/>
<path d="M254.008 152.057H251.056C250.52 152.058 250.001 152.238 249.581 152.57C249.161 152.902 248.864 153.365 248.74 153.885L245.072 169.255C244.394 172.107 242.077 180.322 239.518 181.758C237.949 182.639 236.18 183.1 234.382 183.099H223.315L225.25 231.202H247.945L253.43 154.601C253.45 154.425 253.45 154.247 253.43 154.071H254.029L254.008 152.057Z" fill="white" stroke="#263238" stroke-miterlimit="10"/>
<path d="M226.268 183.094H237.339C239.138 183.094 240.906 182.632 242.475 181.753C245.03 180.316 247.351 172.101 248.029 169.25L251.697 153.88C251.821 153.36 252.116 152.897 252.535 152.565C252.955 152.233 253.473 152.052 254.008 152.052C254.334 152.051 254.658 152.117 254.957 152.247C255.257 152.377 255.527 152.567 255.75 152.806C255.973 153.045 256.144 153.327 256.253 153.635C256.361 153.943 256.405 154.27 256.382 154.596L250.997 230.02C250.973 230.337 250.831 230.634 250.598 230.851C250.365 231.068 250.059 231.189 249.741 231.191H228.075L226.268 183.094Z" fill="white" stroke="#263238" stroke-miterlimit="10"/>
<path d="M219.531 186.56L218.36 231.228H228.054L229.739 186.56C229.739 186.104 229.649 185.653 229.475 185.232C229.3 184.811 229.045 184.429 228.722 184.107C228.4 183.785 228.017 183.53 227.596 183.356C227.175 183.182 226.723 183.093 226.268 183.094H223.003C222.547 183.093 222.096 183.182 221.675 183.356C221.254 183.53 220.871 183.785 220.549 184.107C220.226 184.429 219.97 184.811 219.796 185.232C219.621 185.653 219.531 186.104 219.531 186.56Z" fill="white" stroke="#263238" stroke-miterlimit="10"/>
<path d="M163.208 186.56L164.872 231.228H174.566L173.411 186.56C173.411 185.641 173.046 184.759 172.396 184.109C171.745 183.459 170.864 183.094 169.945 183.094H166.68C166.224 183.093 165.773 183.182 165.352 183.356C164.931 183.53 164.548 183.785 164.225 184.107C163.903 184.429 163.647 184.811 163.473 185.232C163.298 185.653 163.208 186.104 163.208 186.56Z" fill="white" stroke="#263238" stroke-miterlimit="10"/>
<path d="M173.596 211.592H219.091" stroke="#263238" stroke-miterlimit="10"/>
<path d="M151.342 152.232C151.342 152.232 147.133 175.616 146.211 179.569C145.289 183.523 143.031 203.679 143.031 208.688C143.031 213.696 143.423 228.828 143.423 228.828C143.423 228.828 141.711 229.617 141.711 230.275C141.711 230.932 143.031 235.151 143.031 235.151L150.801 238.05C150.801 238.05 152.391 234.34 152.513 233.041C152.635 231.743 151.591 231.197 151.591 228.955C151.591 226.713 155.544 200.632 156.732 196.286C157.919 191.94 161.343 178.896 162 177.709C162.657 176.522 165.954 167.83 165.954 167.83L167.798 168.752C167.798 168.752 168.98 196.153 169.642 197.865C170.305 199.577 179.14 227.476 179.14 227.476C179.14 227.476 177.693 228.133 178.61 229.718C179.527 231.303 181.112 234.854 181.112 234.854C181.112 234.854 182.564 232.877 184.292 232.485C186.019 232.092 188.903 233.799 188.903 233.799C188.903 233.799 190.615 229.845 190.217 228.006C189.82 226.167 188.097 222.998 187.98 222.075C187.864 221.153 184.27 194.59 184.27 194.59C184.27 194.59 185.193 157.437 185.193 154.935C185.143 153.228 184.832 151.539 184.27 149.927C178.743 151.823 172.977 152.933 167.141 153.223C157.786 153.615 152.651 149.799 152.651 149.799L151.342 152.232Z" fill="#263238" stroke="#263238" stroke-miterlimit="10"/>
<path d="M143.052 235.166C143.052 235.166 138.701 239.115 137.911 239.645C137.122 240.175 131.588 242.295 131.721 243.355C131.853 244.415 133.311 245.067 133.311 245.067H151.23C151.23 245.067 151.357 244.537 151.622 242.035C151.749 240.413 151.478 238.785 150.833 237.292L143.052 235.166Z" fill="white" stroke="#263238" stroke-miterlimit="10"/>
<path d="M151.49 243.143L131.816 243.673C132.155 244.272 132.675 244.749 133.3 245.035H151.22C151.22 245.035 151.31 244.68 151.49 243.143Z" fill="white" stroke="#263238" stroke-miterlimit="10"/>
<path d="M181.122 234.854C181.122 234.854 180.99 238.145 180.99 239.862C180.99 241.579 180.73 243.572 180.857 243.943C180.985 244.314 181.255 245.003 181.255 245.003H191.664C191.664 245.003 192.056 243.943 191.532 241.972C191.007 240 190.079 238.945 189.82 237.202C189.618 236.034 189.31 234.888 188.897 233.778C188.897 233.778 183.756 229.718 181.122 234.854Z" fill="white" stroke="#263238" stroke-miterlimit="10"/>
<path d="M191.802 243.752C187.843 243.752 182.914 243.625 180.82 243.572C180.819 243.697 180.832 243.821 180.857 243.943C180.99 244.341 181.255 245.003 181.255 245.003H191.664C191.779 244.597 191.825 244.174 191.802 243.752Z" fill="white" stroke="#263238" stroke-miterlimit="10"/>
<path d="M147.605 102.629C147.605 102.629 136.411 113.139 136.899 114.12C137.387 115.1 140.45 123.055 140.45 123.055C140.45 123.055 141.33 128.355 140.842 131.7C140.544 133.815 140.445 135.953 140.545 138.086C141.574 139.383 142.832 140.481 144.255 141.325C146.418 142.506 148.087 144.568 149.465 141.229C150.843 137.89 150.25 131.896 150.25 131.896C150.25 131.896 152.11 139.167 152.423 140.45C152.735 141.733 151.363 152.237 151.363 152.237C151.363 152.237 158.115 157.94 169.6 156.647C181.085 155.354 184.726 151.347 184.726 151.347C184.726 151.347 183.544 138.478 183.544 137.005C183.533 135.986 183.468 134.969 183.348 133.958C183.348 133.958 187.376 138.086 189.343 137.89C191.309 137.694 194.743 129.638 193.858 128.35C192.973 127.062 189.931 121.858 188.065 118.126C186.941 115.878 186.005 113.539 185.267 111.136C185.267 111.136 182.023 100.133 181.027 99.3486C180.03 98.5642 168.996 98.6861 167.03 98.1985C164.433 97.6874 161.809 97.3334 159.17 97.1385C158.512 97.1279 149.767 99.1896 147.605 102.629Z" fill="#FFB2CB" stroke="#263238" stroke-miterlimit="10"/>
<path d="M180.624 117.337C180.571 114.517 180.561 112.323 180.561 112.323" stroke="#263238" stroke-miterlimit="10"/>
<path d="M183.38 133.957C182.63 132.429 181.975 130.855 181.419 129.246C181.027 128.074 180.82 123.893 180.709 119.976" stroke="#263238" stroke-miterlimit="10"/>
<path d="M144.653 122.324C143.651 120.575 142.888 119.208 142.793 118.932" stroke="#263238" stroke-miterlimit="10"/>
<path d="M150.26 131.896C150.26 131.896 147.748 127.656 145.639 124.031" stroke="#263238" stroke-miterlimit="10"/>
<path d="M163.028 98.5005C163.433 101.958 163.466 105.45 163.129 108.915" stroke="#263238" stroke-miterlimit="10"/>
<path d="M169.637 146.98C170.819 147.218 172.086 147.436 173.437 147.61" stroke="#263238" stroke-miterlimit="10"/>
<path d="M155.364 140.641C155.364 140.641 158.544 144.128 167.024 146.365" stroke="#263238" stroke-miterlimit="10"/>
<path d="M164.009 148.103C167.65 149.738 171.609 150.543 175.6 150.462" stroke="#263238" stroke-miterlimit="10"/>
<path d="M140.535 86.7134C140.535 86.7134 141.712 92.2148 141.812 93.3967C141.913 94.5786 142.204 96.1474 143.678 98.5006C145.151 100.854 148.978 106.064 149.768 106.36C150.557 106.657 153.599 105.868 153.599 105.868C153.599 105.868 156.838 112.254 157.723 112.058C158.608 111.862 160.866 104.59 161.163 101.644C161.35 100.178 161.382 98.696 161.258 97.2233L159.885 92.3155C159.885 92.3155 158.709 85.4255 158.709 84.9485C158.709 84.4715 159.392 80.9205 155.566 79.4471C151.739 77.9737 147.017 77.8571 143.874 81.5088C140.731 85.1605 140.535 86.7134 140.535 86.7134Z" fill="white" stroke="#263238" stroke-miterlimit="10"/>
<path d="M151.05 80.5282C149.672 82.6192 147.866 84.3933 145.75 85.7328C142.12 88.0913 143.885 85.5367 143.885 85.5367C143.885 85.5367 141.33 87.1267 139.268 88.1867C137.207 89.2467 137.991 89.5647 137.207 89.2467C136.422 88.9287 133.497 80.5653 140.063 76.5267C146.63 72.4881 151.421 73.5534 151.421 73.5534C151.421 73.5534 148.57 72.2761 151.124 72.2761C153.679 72.2761 154.76 73.67 154.76 73.67C154.76 73.67 156.133 73.2778 156.721 74.0622C156.979 74.3424 157.301 74.5552 157.659 74.6823C160.839 76.0285 161.947 79.0389 162.546 82.1818C162.938 84.2435 161.269 89.1566 161.269 89.1566L158.513 90.63C157.845 90.0215 157.304 89.2865 156.923 88.4676C156.672 87.6735 156.539 86.8466 156.53 86.0137C156.53 86.0137 154.861 88.1708 154.564 86.602C154.267 85.0332 153.504 81.0052 153.504 81.0052C153.504 81.0052 153.801 82.5952 152.82 82.5952C151.84 82.5952 151.05 80.5282 151.05 80.5282Z" fill="#263238" stroke="#263238" stroke-miterlimit="10"/>
<path d="M158.311 91.3297C158.311 91.3297 158.216 87.9906 160.182 86.9094C162.148 85.8282 163.521 87.0102 162.927 90.1531C162.334 93.296 158.804 94.4726 158.804 94.4726" fill="white"/>
<path d="M158.311 91.3297C158.311 91.3297 158.216 87.9906 160.182 86.9094C162.148 85.8282 163.521 87.0102 162.927 90.1531C162.334 93.296 158.804 94.4726 158.804 94.4726" stroke="#263238" stroke-miterlimit="10"/>
<path d="M153.599 105.867L158.804 100.663L155.364 108.618L153.599 105.867Z" fill="#263238" stroke="#263238" stroke-miterlimit="10"/>
<path d="M151.193 100.605C151.303 100.797 151.337 101.024 151.287 101.241C151.237 101.457 151.107 101.646 150.923 101.771C150.568 101.914 150.117 101.622 149.916 101.119C149.714 100.615 149.836 100.09 150.186 99.9474C150.536 99.8043 150.986 100.101 151.193 100.605Z" fill="#263238"/>
<path d="M152.55 91.5099C152.741 92.1353 152.603 92.7289 152.248 92.8402C151.893 92.9515 151.437 92.5328 151.246 91.9127C151.055 91.2926 151.193 90.699 151.548 90.5877C151.903 90.4764 152.359 90.8898 152.55 91.5099Z" fill="#263238"/>
<path d="M146.1 92.6017C146.291 93.2271 146.153 93.8207 145.792 93.932C145.432 94.0433 144.987 93.6299 144.796 93.0045C144.605 92.3791 144.738 91.7908 145.098 91.6795C145.459 91.5682 145.904 91.9816 146.1 92.6017Z" fill="#263238"/>
<path d="M146.333 90.1531C146.769 90.5094 147.118 90.9594 147.356 91.4696C147.594 91.9798 147.713 92.5371 147.706 93.0999C147.706 95.0662 147.409 98.013 147.409 98.013L150.949 97.5201" stroke="#263238" stroke-miterlimit="10"/>
<path d="M148.686 88.8758C148.686 88.8758 150.456 85.7329 153.207 86.3212" stroke="#263238" stroke-miterlimit="10"/>
<path d="M145.543 89.4641C145.543 89.4641 143.386 88.7804 141.913 89.6602" stroke="#263238" stroke-miterlimit="10"/>
<path d="M205.64 114.708C205.64 114.708 207.802 113.923 208.587 113.648C209.371 113.372 210.177 113.844 211.534 113.16C212.89 112.477 214.48 111.093 214.581 112.1C214.682 113.107 214.184 113.473 213.399 113.966C212.615 114.459 211.338 115.439 211.338 115.439L210.945 116.42L205.052 115.932C205.052 115.932 205.163 115.01 205.64 114.708Z" fill="white" stroke="#263238" stroke-miterlimit="10"/>
<path d="M217.486 117.247C217.486 117.247 220.194 115.1 220.586 114.12C220.978 113.139 220.289 113.06 219.606 113.431C218.922 113.802 216.77 115.593 216.77 115.593L217.486 117.247Z" fill="white" stroke="#263238" stroke-miterlimit="10"/>
<path d="M215.27 117.713C215.27 117.713 217.284 117.925 217.486 117.247C217.687 116.568 219.277 112.296 219.017 111.761C218.758 111.226 218.254 111.274 217.698 112.159C217.102 113.372 216.589 114.624 216.161 115.906C216.161 115.906 214.814 116.208 214.475 117.13C214.136 118.052 215.27 117.713 215.27 117.713Z" fill="white" stroke="#263238" stroke-miterlimit="10"/>
<path d="M212.726 118.243C212.726 118.243 214.597 119.033 214.989 118.439C215.381 117.846 218.132 114.199 218.031 113.627C217.931 113.054 217.443 112.943 216.659 113.627C215.736 114.615 214.883 115.665 214.104 116.77C214.104 116.77 212.726 116.674 212.138 117.459C211.55 118.243 212.726 118.243 212.726 118.243Z" fill="white" stroke="#263238" stroke-miterlimit="10"/>
<path d="M185.325 134.355C186.101 131.213 188.076 128.498 190.827 126.792C195.538 123.745 201.93 118.243 201.93 118.243C201.93 118.243 204.092 115.201 205.64 114.708C207.188 114.215 212.318 115.689 212.318 115.689C212.318 115.689 216.447 111.565 216.558 112.45C216.669 113.335 214.597 116.478 213.611 117.655C212.625 118.831 209.583 119.128 208.9 119.128C207.683 119.165 206.47 119.264 205.264 119.425C204.872 119.52 198.374 128.361 195.443 132.675C192.512 136.989 191.203 137.779 189.353 137.88C187.503 137.98 185.521 136.502 185.028 135.818C184.535 135.134 185.325 134.355 185.325 134.355Z" fill="white" stroke="#263238" stroke-miterlimit="10"/>
<path d="M123.898 118.095L130.089 131.525C130.184 131.716 130.339 131.871 130.53 131.967C130.721 132.062 130.938 132.093 131.149 132.055L136.284 131.106C136.427 131.078 136.562 131.02 136.679 130.934C136.796 130.848 136.892 130.737 136.961 130.609C137.03 130.481 137.07 130.34 137.077 130.195C137.085 130.05 137.06 129.905 137.005 129.77L131.44 116.664C131.36 116.47 131.218 116.308 131.038 116.202C130.857 116.096 130.647 116.051 130.438 116.075L124.667 116.717C124.514 116.735 124.368 116.789 124.24 116.875C124.112 116.961 124.006 117.075 123.931 117.21C123.856 117.344 123.814 117.494 123.809 117.648C123.803 117.802 123.833 117.955 123.898 118.095Z" fill="#263238" stroke="#263238" stroke-miterlimit="10"/>
<path d="M127.963 129.59C127.963 129.59 125.742 126.188 125.742 125.424C125.742 124.661 127.036 122.854 127.794 121.222C128.551 119.589 128.668 118.497 129.32 118.72C129.972 118.943 129.85 119.589 129.643 120.676C129.245 122.077 128.774 123.457 128.233 124.81L128.451 126.119C128.976 125.06 129.633 124.071 130.406 123.177C131.387 122.202 132.473 120.57 133.237 120.893C134 121.216 134.323 121.423 133.671 122.202C132.853 123.182 132.119 124.23 131.477 125.334C130.901 126.277 130.407 127.266 129.998 128.292C130.726 127.594 131.5 126.946 132.314 126.352C133.374 125.589 134.869 124.486 135.494 124.921C136.12 125.356 136.258 125.79 135.606 126.336C134.954 126.882 134.36 127.253 133.486 128.016C132.574 128.927 131.717 129.891 130.921 130.905C131.697 130.305 132.563 129.829 133.486 129.495C135.335 128.737 137.026 128.822 137.095 129.405C137.164 129.988 135.15 130.518 135.15 130.518C133.708 130.846 133.639 131.339 133.639 131.339C133.639 131.339 134.837 133.735 134.62 134.519C134.62 134.519 139.454 133.761 141.303 133.221C143.153 132.68 146.041 133.751 146.916 134.625C148.766 136.475 149.635 139.305 148.66 141.701C147.684 144.096 147.679 143.333 139.952 141.171C132.224 139.008 132.373 138.235 130.486 135.076C129.802 133.846 127.963 129.59 127.963 129.59Z" fill="white" stroke="#263238" stroke-miterlimit="10"/>
<path d="M134.652 134.498L134.488 136.491" stroke="#263238" stroke-miterlimit="10"/>
</svg>
