<svg width="492" height="512" viewBox="0 0 492 512" fill="none" xmlns="http://www.w3.org/2000/svg">
<path d="M245.971 0C230.892 0 215.906 2.00154 201.43 5.95079C195.804 7.48467 192.488 13.2887 194.022 18.9133C195.556 24.5389 201.365 27.8559 206.983 26.3199C219.65 22.8647 232.768 21.1133 245.971 21.1133C327.464 21.1133 393.764 87.4133 393.764 168.907C393.764 244.628 363.569 274.203 336.931 300.296C319.581 317.288 303.092 333.455 299.489 358.927H192.453C188.85 333.455 172.362 317.288 155.012 300.296C128.373 274.203 98.178 244.628 98.178 168.907C98.178 134.003 110.578 100.127 133.094 73.5166C136.86 69.0659 136.305 62.4046 131.854 58.6391C127.404 54.8725 120.742 55.4277 116.976 59.8784C91.2391 90.2953 77.0647 129.016 77.0647 168.907C77.0647 253.502 112.093 287.811 140.239 315.38C156.264 331.076 168.426 343 171.379 360.833C157.973 365.502 148.322 378.26 148.322 393.238C148.322 408.473 158.307 421.413 172.075 425.878V448.661H169.437C163.607 448.661 158.88 453.387 158.88 459.218C158.88 465.048 163.607 469.774 169.437 469.774H172.075V480.331C172.075 497.794 186.282 512.001 203.745 512.001H288.198C305.661 512.001 319.868 497.794 319.868 480.331V469.774H322.507C328.336 469.774 333.064 465.048 333.064 459.218C333.064 453.387 328.336 448.661 322.507 448.661H319.868V425.878C333.636 421.414 343.62 408.473 343.62 393.238C343.62 378.261 333.969 365.502 320.563 360.833C323.516 343 335.678 331.076 351.704 315.38C379.85 287.812 414.878 253.503 414.878 168.907C414.878 75.7715 339.107 0 245.971 0ZM298.755 480.33C298.755 486.151 294.019 490.887 288.198 490.887H203.745C197.924 490.887 193.188 486.151 193.188 480.33V469.773H298.755V480.33ZM193.188 448.661V427.547H298.755V448.661H193.188ZM309.311 406.432H182.631C175.355 406.432 169.435 400.513 169.435 393.237C169.435 385.96 175.355 380.041 182.631 380.041H309.311C316.588 380.041 322.507 385.961 322.507 393.237C322.507 400.513 316.588 406.432 309.311 406.432Z" fill="black"/>
<path d="M34.8359 179.463C40.6653 179.463 45.3926 174.737 45.3926 168.907C45.3926 163.076 40.6653 158.35 34.8359 158.35H10.5567C4.72727 158.35 0 163.076 0 168.907C0 174.737 4.72727 179.463 10.5567 179.463H34.8359Z" fill="black"/>
<path d="M57.8442 265.332L15.7907 289.612C10.7414 292.527 9.01119 298.984 11.9269 304.033C13.8831 307.419 17.4301 309.313 21.0796 309.313C22.87 309.313 24.6857 308.856 26.3473 307.897L68.4008 283.616C73.4501 280.702 75.1803 274.245 72.2646 269.196C69.3499 264.148 62.8945 262.416 57.8442 265.332Z" fill="black"/>
<path d="M476.152 289.611L434.098 265.331C429.048 262.415 422.591 264.147 419.678 269.195C416.762 274.244 418.492 280.7 423.541 283.615L465.595 307.895C467.258 308.856 469.072 309.312 470.863 309.312C474.511 309.312 478.06 307.418 480.015 304.032C482.931 298.984 481.201 292.527 476.152 289.611Z" fill="black"/>
<path d="M481.386 158.35H457.106C451.277 158.35 446.55 163.076 446.55 168.907C446.55 174.737 451.277 179.463 457.106 179.463H481.386C487.215 179.463 491.942 174.737 491.942 168.907C491.942 163.076 487.215 158.35 481.386 158.35Z" fill="black"/>
<path d="M428.83 73.8977C430.621 73.8977 432.436 73.4406 434.098 72.481L476.152 48.2007C481.201 45.286 482.931 38.8295 480.015 33.7803C477.1 28.7321 470.645 27.0018 465.595 29.9165L423.541 54.1968C418.492 57.1115 416.762 63.568 419.678 68.6172C421.633 72.0049 425.181 73.8977 428.83 73.8977Z" fill="black"/>
<path d="M68.4008 54.1968L26.3473 29.9165C21.296 26.9997 14.8416 28.731 11.9269 33.7802C9.01119 38.8295 10.7414 45.2859 15.7907 48.2006L57.8442 72.4809C59.5068 73.4405 61.3215 73.8976 63.1119 73.8976C66.7603 73.8976 70.3095 72.0038 72.2646 68.6172C75.1803 63.5679 73.4501 57.1115 68.4008 54.1968Z" fill="black"/>
<path d="M280.526 229.431C285.024 222.672 293.78 213.611 301.753 205.638C309.159 198.232 314.973 189.547 319.035 179.823C323.09 170.116 325.145 159.899 325.145 149.455C325.145 128.309 316.909 108.426 301.953 93.4708C286.997 78.5152 267.116 70.2799 245.97 70.2799C224.824 70.2799 204.943 78.5162 189.987 93.4708C175.031 108.426 166.795 128.309 166.795 149.455C166.795 166.918 181.002 181.125 198.465 181.125C215.928 181.125 230.135 166.918 230.135 149.455C230.135 145.223 231.782 141.246 234.773 138.256C237.762 135.267 241.739 133.62 245.97 133.62C250.201 133.62 254.178 135.267 257.169 138.256C260.158 141.246 261.805 145.223 261.805 149.455C261.805 151.604 261.408 153.645 260.625 155.52C259.827 157.429 258.596 159.224 256.967 160.854C242.573 175.248 234.127 184.99 227.816 194.477C218.596 208.334 214.3 221.482 214.3 235.854C214.3 243.959 217.365 251.36 222.391 256.968C217.364 262.577 214.3 269.98 214.3 278.09C214.3 295.553 228.507 309.76 245.97 309.76C263.433 309.76 277.64 295.553 277.64 278.09V278.082C277.64 269.977 274.575 262.576 269.549 256.968C274.575 251.36 277.64 243.959 277.64 235.854C277.641 234.904 278.143 233.016 280.526 229.431ZM245.395 206.174C250.88 197.927 258.559 189.124 271.898 175.783C275.482 172.198 278.245 168.119 280.107 163.659C281.973 159.193 282.918 154.414 282.918 149.456C282.918 139.584 279.075 130.305 272.098 123.328C265.121 116.35 255.843 112.508 245.97 112.508C236.098 112.508 226.819 116.35 219.843 123.328C212.865 130.305 209.022 139.584 209.022 149.456C209.022 155.277 204.286 160.013 198.465 160.013C192.644 160.013 187.908 155.277 187.908 149.456C187.908 133.949 193.949 119.369 204.916 108.402C215.884 97.4348 230.463 91.3943 245.97 91.3943C261.477 91.3943 276.057 97.4348 287.024 108.402C297.992 119.369 304.032 133.949 304.032 149.456C304.032 157.092 302.524 164.571 299.553 171.686C296.557 178.858 292.273 185.259 286.823 190.71C274.316 203.216 267.4 211.046 262.947 217.736C258.567 224.321 256.527 230.078 256.527 235.855C256.527 241.676 251.791 246.411 245.97 246.411C240.149 246.411 235.413 241.676 235.413 235.855C235.414 225.699 238.493 216.546 245.395 206.174ZM256.528 278.09C256.528 283.911 251.792 288.646 245.971 288.646C240.15 288.646 235.415 283.911 235.415 278.082C235.415 272.261 240.15 267.526 245.971 267.526C251.792 267.526 256.528 272.261 256.528 278.082V278.09Z" fill="black"/>
<path d="M160.779 45.9605C166.608 45.9605 171.336 41.2343 171.336 35.4039C171.336 29.5734 166.608 24.8472 160.779 24.8472H160.77C154.941 24.8472 150.218 29.5734 150.218 35.4039C150.218 41.2343 154.948 45.9605 160.779 45.9605Z" fill="black"/>
</svg>
