<svg width="27" height="27" viewBox="0 0 27 27" fill="none" xmlns="http://www.w3.org/2000/svg">
<path fill-rule="evenodd" clip-rule="evenodd" d="M10.3057 5.31721C10.8534 5.7473 11.1684 6.38864 11.1684 7.07678C11.1684 12.6237 11.3556 14.1163 12.1209 14.6843C12.6231 15.0549 13.3112 15.0511 15.6299 14.9866C16.7077 14.955 18.0878 14.9145 19.8954 14.9145C20.6164 14.9145 21.2957 15.2232 21.7562 15.7608C22.1837 16.2604 22.3709 16.9132 22.2723 17.5558C21.4273 23.0267 16.7722 27 11.2038 27C5.02571 27 0 21.9743 0 15.7975C0 10.8995 3.70382 6.00156 8.25644 4.8808C8.96735 4.7075 9.73139 4.86941 10.3057 5.31721ZM8.832 6.70868C8.79152 6.70868 8.75104 6.71373 8.71056 6.72385C4.95361 7.64854 1.89745 11.7192 1.89745 15.7975C1.89745 20.9282 6.07184 25.1026 11.2038 25.1026C15.8298 25.1026 19.6955 21.8073 20.3963 17.2661C20.4014 17.2281 20.4191 17.1181 20.3154 16.9954C20.2167 16.8803 20.0598 16.812 19.8954 16.812C18.1105 16.812 16.7482 16.8524 15.6843 16.8828C13.1088 16.96 12.0437 16.9891 10.9913 16.2086C9.48637 15.0937 9.28851 13.2194 9.27217 7.95978L9.27094 7.07678C9.27094 6.97052 9.2254 6.88198 9.13432 6.81114C9.04957 6.74409 8.94205 6.70868 8.832 6.70868ZM22.8331 3.45809C25.057 5.68064 26.4687 8.60145 26.4282 10.8999C26.413 11.7968 25.7615 12.5456 24.8811 12.6784C23.1633 12.9377 21.152 13.0162 19.3722 13.0162C17.7151 13.0162 16.2566 12.9491 15.4179 12.9011C14.3629 12.8391 13.523 11.9979 13.4623 10.9429C13.3636 9.27061 13.1498 5.02159 13.3016 1.73521C13.3434 0.780157 14.115 0.0199125 15.0587 0.00346798C17.7619 -0.0749599 20.5511 1.17989 22.8331 3.45809ZM15.2206 1.89965H15.1928C15.0536 5.0861 15.2598 9.2023 15.3559 10.8328C15.361 10.9302 15.4318 11.0011 15.528 11.0061C16.8284 11.0808 21.3089 11.2882 24.5308 10.8139C24.5383 9.03786 23.3227 6.62936 21.4923 4.80022C19.6151 2.92554 17.3938 1.89965 15.2206 1.89965Z" fill="#2C6753"/>
</svg>
